{
    "amethystcreative_magentopos_pos": {
        "column": {
            "pos_id": true,
            "name": true,
            "address": true,
            "is_available": true,
            "created_at": true,
            "updated_at": true
        },
        "constraint": {
            "PRIMARY": true
        },
        "index": {
            "AMETHYSTCREATIVE_MAGENTOPOS_POS_NAME": true
        }
    }
}